{
	"ev_stations": [
		{
			"id" : 1,
			"latitude" : 13.744360,
			"longitude" : 100.543503,
			"name" : "การไฟฟ้านครหลวง สำนักงานเพลินจิต"
		},
		{
			"id" : 2,
			"latitude" : 13.745764,
			"longitude" : 100.534730,
			"name" : "Siam Paragon"
		},
		{
			"id" : 3,
			"latitude" : 13.746888,
			"longitude" : 100.532255,
			"name" : "Siam Car Park"
		},
		{
			"id" : 4,
			"latitude" : 13.666930,
			"longitude" : 100.413360,
			"name" : "SUSCO สาขาเอกชัย"
		},
		{
			"id" : 5,
			"latitude" : 13.685865,
			"longitude" : 100.494137,
			"name" : "SUSCO บางประกอก (สำนักงานใหญ่)"
		},
		{
			"id" : 6,
			"latitude" : 13.670460,
			"longitude" : 100.556200,
			"name" : "SUSCO สาขาบางยอ"
		},
		{
			"id" : 7,
			"latitude" : 13.715865,
			"longitude" : 100.558659,
			"name" : "บริษัท ล็อกซเล่ย์ จำกัด (มหาชน)"
		},
		{
			"id" : 8,
			"latitude" : 13.805706,
			"longitude" : 100.618944,
			"name" : "CDC 2"
		},
		{
			"id" : 9,
			"latitude" : 13.802867,
			"longitude" : 100.619184,
			"name" : "CDC 3"
		},
		{
			"id" : 10,
			"latitude" : 13.801969,
			"longitude" : 100.619263,
			"name" : "CDC 4"
		},
		{
			"id" : 11,
			"latitude" : 13.804935,
			"longitude" : 100.647431,
			"name" : "SCB สาขาถนนนวมินทร์"
		},
		{
			"id" : 12,
			"latitude" : 13.745866,
			"longitude" : 100.580722,
			"name" : "Vattana Auto Sale and Service"
		},
		{
			"id" : 13,
			"latitude" : 13.852002,
			"longitude" : 100.632081,
			"name" : "ก๋วยเตี๋ยวเนื้อคุณอ้อม"
		},
		{
			"id" : 14,
			"latitude" : 13.647094,
			"longitude" : 100.431156,
			"name" : "OPG Amazon"
		},
		{
			"id" : 15,
			"latitude" : 13.858493,
			"longitude" : 100.681140,
			"name" : "MAXVALU คู้บอน"
		},
		{
			"id" : 16,
			"latitude" : 13.880630,
			"longitude" : 100.589941,
			"name" : "MAXVALU หลักสี่"
		},
		{
			"id" : 17,
			"latitude" : 13.718832,
			"longitude" : 100.596807,
			"name" : "Max Valu สุขุมวิท 71"
		},
		{
			"id" : 18,
			"latitude" : 13.804070,
			"longitude" : 100.574523,
			"name" : "สวนลุมไนท์บาซาร์รัชดาภิเษก ST.1"
		},
		{
			"id" : 19,
			"latitude" : 13.834291,
			"longitude" : 100.576280,
			"name" : "SUSCO สาขาเสนานิคม"
		},
		{
			"id" : 20,
			"latitude" : 13.854002,
			"longitude" : 100.633457,
			"name" : "SCB สาขา รามอินทรา กม. 4.5"
		},
		{
			"id" : 21,
			"latitude" : 13.820733,
			"longitude" : 100.735970,
			"name" : "มังกรพลาซ่า แยกไปรษณีย์มีนบุรี"
		},
		{
			"id" : 22,
			"latitude" : 13.817768,
			"longitude" : 100.645513,
			"name" : "ร้านแต่งรถ OAK CLUB (ถ.นวลจันทร์)"
		},
		{
			"id" : 23,
			"latitude" : 13.747003,
			"longitude" : 100.660641,
			"name" : "The Park กรุงเทพกรีฑา"
		},
		{
			"id" : 24,
			"latitude" : 13.781642,
			"longitude" : 100.418172,
			"name" : "ศิลาตาก แกรนิต"
		},
		{
			"id" : 25,
			"latitude" : 13.776782,
			"longitude" : 100.673481,
			"name" : "สัมมากรเพลส ซ.รามคำแหง 110  ST.1"
		},
		{
			"id" : 26,
			"latitude" : 13.775742,
			"longitude" : 100.674764,
			"name" : "สัมมากรเพลส ซ.รามคำแหง 110 ST. 2"
		},
		{
			"id" : 27,
			"latitude" : 13.741941,
			"longitude" : 100.514109,
			"name" : "อาคารจอดรถหมอมีพัฒนา"
		},
		{
			"id" : 28,
			"latitude" : 13.707210,
			"longitude" : 100.375928,
			"name" : "VICTORIA GARDENS  STATION 2"
		},
		{
			"id" : 29,
			"latitude" : 13.628836,
			"longitude" : 100.718523,
			"name" : "ศูนย์การค้า May Market ถ.บางนา-ตราด"
		},
		{
			"id" : 30,
			"latitude" : 13.732931,
			"longitude" : 100.406431,
			"name" : "SUSCO กาญจนาภิเษก"
		},
		{
			"id" : 31,
			"latitude" : 13.928569,
			"longitude" : 100.443835,
			"name" : "LPG  เลิศราชพฤกษ์"
		},
		{
			"id" : 32,
			"latitude" : 13.809534,
			"longitude" : 100.448341,
			"name" : "Crystal  Park สาขาราชพฤกษ์"
		},
		{
			"id" : 33,
			"latitude" : 13.915088,
			"longitude" : 100.542605,
			"name" : "ร้านอาหาร Chuan Kitchen (เมืองทองธานี)"
		},
		{
			"id" : 34,
			"latitude" : 13.912511,
			"longitude" : 100.449500,
			"name" : "สัมมากรเพลส สาขาราชพฤกษ์ ST.1"
		},
		{
			"id" : 35,
			"latitude" : 14.245979,
			"longitude" : 100.614168,
			"name" : "FN Outlet สาขาอยุธยา (AYUDHAYA)"
		},
		{
			"id" : 36,
			"latitude" : 13.344725,
			"longitude" : 99.883952,
			"name" : "P.R. แพรกหนามแดง จำกัด"
		},
		{
			"id" : 37,
			"latitude" : 13.322032,
			"longitude" : 99.828791,
			"name" : "ร้านอาหาร ครัวบ้านขวัญ วังมะนาว ST.1"
		},
		{
			"id" : 38,
			"latitude" : 13.138882,
			"longitude" : 99.855552,
			"name" : "FN Outlet สาขาเพชรบุรี (PHETCHABURI)"
		},
		{
			"id" : 39,
			"latitude" : 12.531753,
			"longitude" : 99.962632,
			"name" : "HOLIDAY INN  HOTEL 1"
		},
		{
			"id" : 40,
			"latitude" : 12.531887,
			"longitude" : 99.963009,
			"name" : "HOLIDAY INN  HOTEL 2"
		},
		{
			"id" : 41,
			"latitude" : 12.552547,
			"longitude" : 99.961827,
			"name" : "Condo LA CASITA  เมืองหัวหิน"
		},
		{
			"id" : 42,
			"latitude" : 13.762290,
			"longitude" : 100.445505,
			"name" : "SUSCO ราชพฤกษ์"
		},
		{
			"id" : 43,
			"latitude" : 13.727324,
			"longitude" : 100.641224,
			"name" : "SUSCO ศรีนครินทร์ 3"
		},
		{
			"id" : 44,
			"latitude" : 13.799602,
			"longitude" : 100.575281,
			"name" : "EMN Station"
		},
		{
			"id" : 45,
			"latitude" : 13.664623,
			"longitude" : 100.647837,
			"name" : "SPYDER AUTO BANGNA"
		},
		{
			"id" : 46,
			"latitude" : 13.690147,
			"longitude" : 100.670214,
			"name" : "SUSCO สาขา สวนหลวง ร.9"
		},
		{
			"id" : 47,
			"latitude" : 13.712083,
			"longitude" : 100.420330,
			"name" : "SUSCO สาขา เพชรเกษม (บางแค2)"
		},
		{
			"id" : 48,
			"latitude" : 13.827375,
			"longitude" : 100.565325,
			"name" : "SCB PLAZA EAST (B1)"
		},
		{
			"id" : 49,
			"latitude" : 13.734604,
			"longitude" : 100.587595,
			"name" : "SCB สาขาเอกมัย"
		},
		{
			"id" : 50,
			"latitude" : 13.795896,
			"longitude" : 100.691478,
			"name" : "SCB สาขา เสรีไทย (สวนสยาม)"
		},
		{
			"id" : 51,
			"latitude" : 13.696177,
			"longitude" : 100.605927,
			"name" : "SCB สาขาบางจาก"
		},
		{
			"id" : 52,
			"latitude" : 13.716417,
			"longitude" : 100.506104,
			"name" : "SCB สาขา เจริญนคร"
		},
		{
			"id" : 53,
			"latitude" : 13.720621,
			"longitude" : 100.475762,
			"name" : "SCB สาขาตลาดพลู"
		},
		{
			"id" : 54,
			"latitude" : 13.827891,
			"longitude" : 100.569009,
			"name" : "SCB สาขาบางเขน"
		},
		{
			"id" : 55,
			"latitude" : 13.705488,
			"longitude" : 100.338832,
			"name" : "SCB สาขาเพชรเกษม ซอย 114"
		},
		{
			"id" : 56,
			"latitude" : 13.826906,
			"longitude" : 100.564557,
			"name" : "SCB Head office (LB)"
		},
		{
			"id" : 57,
			"latitude" : 13.827570,
			"longitude" : 100.563939,
			"name" : "SCB PLAZA WEST"
		},
		{
			"id" : 58,
			"latitude" : 13.826943,
			"longitude" : 100.563626,
			"name" : "SCB Head office (B1)"
		},
		{
			"id" : 59,
			"latitude" : 13.828354,
			"longitude" : 100.627014,
			"name" : "THE Walk Kaset-Navamin"
		},
		{
			"id" : 60,
			"latitude" : 13.670545,
			"longitude" : 100.406773,
			"name" : "Bridgestone A.C.T (Thailand) Co.,Ltd. Bangbon Branch"
		},
		{
			"id" : 61,
			"latitude" : 13.665993,
			"longitude" : 100.443615,
			"name" : "Index Living Mall สาขาพระราม2"
		},
		{
			"id" : 62,
			"latitude" : 13.687854,
			"longitude" : 100.516744,
			"name" : "Bridgestone A.C.T (Thailand) Co.,Ltd. Rama 3 Branch"
		},
		{
			"id" : 63,
			"latitude" : 13.678362,
			"longitude" : 100.620167,
			"name" : "Bridgestone A.C.T (Thailand) Co.,Ltd. Udomsuk Branch"
		},
		{
			"id" : 64,
			"latitude" : 13.814645,
			"longitude" : 100.652351,
			"name" : "Bridgestone A.C.T (Thailand) Co.,Ltd. Nawamin Branch"
		},
		{
			"id" : 65,
			"latitude" : 13.819406,
			"longitude" : 100.643317,
			"name" : "Bridgestone A.C.T (Thailand) Co.,Ltd. Nuanchan Branch"
		},
		{
			"id" : 66,
			"latitude" : 13.830420,
			"longitude" : 100.592338,
			"name" : "Bridgestone A.C.T (Thailand) Co.,Ltd. Wanghin Branch"
		},
		{
			"id" : 67,
			"latitude" : 13.665111,
			"longitude" : 100.650286,
			"name" : "Index Living Mall สาขาบางนา"
		},
		{
			"id" : 68,
			"latitude" : 13.743218,
			"longitude" : 100.481397,
			"name" : "Bridgestone A.C.T (Thailand) Co.,Ltd. Issaraparb Branch"
		},
		{
			"id" : 69,
			"latitude" : 13.720496,
			"longitude" : 100.684688,
			"name" : "Ring the Bell Homemade cafe"
		},
		{
			"id" : 70,
			"latitude" : 13.760332,
			"longitude" : 100.470153,
			"name" : "Bridgestone A.C.T (Thailand) Co.,Ltd. Charansanitwong 37 Branch"
		},
		{
			"id" : 71,
			"latitude" : 13.718328,
			"longitude" : 100.567215,
			"name" : "Bridgestone A.C.T (Thailand) Co.,Ltd. Kasemraj Branch"
		},
		{
			"id" : 72,
			"latitude" : 13.648736,
			"longitude" : 100.680615,
			"name" : "Bridgestone A.C.T (Thailand) Co.,Ltd. Big-C  Suwinthawong Branch"
		},
		{
			"id" : 73,
			"latitude" : 13.709774,
			"longitude" : 100.535369,
			"name" : "Bridgestone A.C.T (Thailand) Co.,Ltd. Makro Sathorn Branch"
		},
		{
			"id" : 74,
			"latitude" : 13.770451,
			"longitude" : 100.658455,
			"name" : "Bridgestone A.C.T Big-C Ramkhamhaeng"
		},
		{
			"id" : 75,
			"latitude" : 13.700544,
			"longitude" : 100.646447,
			"name" : "Bridgestone A.C.T (Thailand) Co.,Ltd. Suanluang Branch"
		},
		{
			"id" : 76,
			"latitude" : 13.827128,
			"longitude" : 100.529344,
			"name" : "Bridgestone A.C.T (Thailand) Co.,Ltd. Wongsawang Branch"
		},
		{
			"id" : 77,
			"latitude" : 13.669153,
			"longitude" : 100.630411,
			"name" : "Bridgestone A.C.T (Thailand) Co.,Ltd.  Bangna-Tard  2.5 Branch"
		},
		{
			"id" : 78,
			"latitude" : 13.627637,
			"longitude" : 100.395933,
			"name" : "Bridgestone A.C.T (Thailand) Co.,Ltd. Rama2 Branch"
		},
		{
			"id" : 523,
			"latitude" : 15.456630,
			"longitude" : 100.735738,
			"name" : "E87A461C9A"
		},
		{
			"id" : 79,
			"latitude" : 13.711983,
			"longitude" : 100.419328,
			"name" : "บริษัท บริดจสโตน เอ.ซี.ที  (ประเทศไทย) จำกัด สาขาโลตัสบางแค"
		},
		{
			"id" : 80,
			"latitude" : 13.713621,
			"longitude" : 100.647179,
			"name" : "Bridgestone A.C.T (Thailand) Co.,Ltd. Lotus Pattanakhan Branch"
		},
		{
			"id" : 81,
			"latitude" : 13.624978,
			"longitude" : 100.508090,
			"name" : "SUSCO สาขา ประชาอุทิศ 1"
		},
		{
			"id" : 82,
			"latitude" : 13.754298,
			"longitude" : 100.529285,
			"name" : "บริษัท บริดจสโตน เอ.ซี.ที  (ประเทศไทย) จำกัด สาขาราชเทวี"
		},
		{
			"id" : 83,
			"latitude" : 13.795354,
			"longitude" : 100.448919,
			"name" : "The Local Restaurant"
		},
		{
			"id" : 84,
			"latitude" : 13.821773,
			"longitude" : 100.574743,
			"name" : "Bridgestone A.C.T (Thailand) Co.,Ltd.  Ratchadaphisek Branch"
		},
		{
			"id" : 85,
			"latitude" : 13.830420,
			"longitude" : 100.592338,
			"name" : "บริษัท บริดจสโตน เอ.ซี.ที  (ประเทศไทย) จำกัด สาขาวิภาวดี"
		},
		{
			"id" : 86,
			"latitude" : 13.806832,
			"longitude" : 100.557048,
			"name" : "LAO PENG NGUAN TOWER 1"
		},
		{
			"id" : 87,
			"latitude" : 13.806832,
			"longitude" : 100.557048,
			"name" : "LAO PENG NGUAN TOWER 2"
		},
		{
			"id" : 88,
			"latitude" : 13.764470,
			"longitude" : 100.568253,
			"name" : "อาคาร AIA capital center (ลานจอดชั้น 2)"
		},
		{
			"id" : 89,
			"latitude" : 13.721735,
			"longitude" : 100.727302,
			"name" : "The Paseo Mall (สาขาลาดกระบัง) ST.1"
		},
		{
			"id" : 90,
			"latitude" : 13.774233,
			"longitude" : 100.666866,
			"name" : "The Paseo Town (สาขารามคำแหง) ST.2"
		},
		{
			"id" : 91,
			"latitude" : 13.767229,
			"longitude" : 100.405767,
			"name" : "The Paseo Park (สาขากาญจนาภิเษก) ST. 2"
		},
		{
			"id" : 92,
			"latitude" : 13.753345,
			"longitude" : 100.586234,
			"name" : "SPYDER AUTO  RAMA 9"
		},
		{
			"id" : 93,
			"latitude" : 13.818259,
			"longitude" : 100.637113,
			"name" : "โชว์รูม อัศวยนต์ สาขานวมินทร์"
		},
		{
			"id" : 94,
			"latitude" : 13.790473,
			"longitude" : 100.490014,
			"name" : "ร้านอาหารครัวในซอย ซ.จรํญสนิทวงค์ 75"
		},
		{
			"id" : 95,
			"latitude" : 13.712975,
			"longitude" : 100.600755,
			"name" : "ศูนย์การค้า Habito Mall  ถ.สุขุมวิท71"
		},
		{
			"id" : 96,
			"latitude" : 13.713895,
			"longitude" : 100.593324,
			"name" : "Sky Walk condominium"
		},
		{
			"id" : 97,
			"latitude" : 13.735062,
			"longitude" : 100.576624,
			"name" : "โรงพยาบาลสมิติเวช สุขุมวิท49"
		},
		{
			"id" : 98,
			"latitude" : 13.811256,
			"longitude" : 100.619650,
			"name" : "Crystal  Park สาขาประดิษฐ์มนูธรรม Station 1"
		},
		{
			"id" : 99,
			"latitude" : 13.811876,
			"longitude" : 100.618508,
			"name" : "Crystal  Park สาขาประดิษฐ์มนูธรรม Station 2"
		},
		{
			"id" : 100,
			"latitude" : 13.707840,
			"longitude" : 100.375761,
			"name" : "VICTORIA GARDENS  STATION 1"
		}
		]
	}